-- Merging decision tree log ---
manifest
ADDED from C:\Users\kinga\Desktop\Pogodynka\app\src\main\AndroidManifest.xml:2:1-30:12
INJECTED from C:\Users\kinga\Desktop\Pogodynka\app\src\main\AndroidManifest.xml:2:1-30:12
INJECTED from C:\Users\kinga\Desktop\Pogodynka\app\src\main\AndroidManifest.xml:2:1-30:12
INJECTED from C:\Users\kinga\Desktop\Pogodynka\app\src\main\AndroidManifest.xml:2:1-30:12
MERGED from [androidx.appcompat:appcompat:1.1.0] C:\Users\kinga\.gradle\caches\transforms-2\files-2.1\ef8a364a6a39421e69c96cf68eeb3e63\appcompat-1.1.0\AndroidManifest.xml:17:1-24:12
MERGED from [androidx.constraintlayout:constraintlayout:1.1.3] C:\Users\kinga\.gradle\caches\transforms-2\files-2.1\380cbbd0623e9b22e21961fc6ec82b14\constraintlayout-1.1.3\AndroidManifest.xml:2:1-11:12
MERGED from [androidx.swiperefreshlayout:swiperefreshlayout:1.0.0] C:\Users\kinga\.gradle\caches\transforms-2\files-2.1\fee859eac2601f0c53561481b8362e20\swiperefreshlayout-1.0.0\AndroidManifest.xml:17:1-22:12
MERGED from [com.squareup.picasso:picasso:2.71828] C:\Users\kinga\.gradle\caches\transforms-2\files-2.1\0776880ef631f5c06d4be31a89cabfd6\jetified-picasso-2.71828\AndroidManifest.xml:2:1-14:12
MERGED from [androidx.recyclerview:recyclerview:1.1.0] C:\Users\kinga\.gradle\caches\transforms-2\files-2.1\4764869116b7944d884a78eb3b5d999f\recyclerview-1.1.0\AndroidManifest.xml:17:1-24:12
MERGED from [androidx.fragment:fragment:1.1.0] C:\Users\kinga\.gradle\caches\transforms-2\files-2.1\7eb3e9033e20967dc4b6eab4b9d34b59\fragment-1.1.0\AndroidManifest.xml:17:1-24:12
MERGED from [androidx.appcompat:appcompat-resources:1.1.0] C:\Users\kinga\.gradle\caches\transforms-2\files-2.1\a627ba2b0fb7cab1458068884dcfd7e5\jetified-appcompat-resources-1.1.0\AndroidManifest.xml:17:1-24:12
MERGED from [androidx.drawerlayout:drawerlayout:1.0.0] C:\Users\kinga\.gradle\caches\transforms-2\files-2.1\369c371dbc36cd3420e0891af4dc30b8\drawerlayout-1.0.0\AndroidManifest.xml:17:1-22:12
MERGED from [androidx.viewpager:viewpager:1.0.0] C:\Users\kinga\.gradle\caches\transforms-2\files-2.1\b685d122498cf50e728d648d063a2ff6\viewpager-1.0.0\AndroidManifest.xml:17:1-22:12
MERGED from [androidx.customview:customview:1.0.0] C:\Users\kinga\.gradle\caches\transforms-2\files-2.1\3584c755b13ff246a30ea06b73bd9d78\customview-1.0.0\AndroidManifest.xml:17:1-22:12
MERGED from [androidx.loader:loader:1.0.0] C:\Users\kinga\.gradle\caches\transforms-2\files-2.1\d1290085211f6ca31e4b44ad501b0e7c\loader-1.0.0\AndroidManifest.xml:17:1-22:12
MERGED from [androidx.activity:activity:1.0.0] C:\Users\kinga\.gradle\caches\transforms-2\files-2.1\db341947bb3b430f2ccfc05cfed8623a\jetified-activity-1.0.0\AndroidManifest.xml:17:1-24:12
MERGED from [androidx.vectordrawable:vectordrawable-animated:1.1.0] C:\Users\kinga\.gradle\caches\transforms-2\files-2.1\69b157e8ca7c4f8e65106af271a2dd62\vectordrawable-animated-1.1.0\AndroidManifest.xml:17:1-24:12
MERGED from [androidx.vectordrawable:vectordrawable:1.1.0] C:\Users\kinga\.gradle\caches\transforms-2\files-2.1\ee8663f4341a41303331ea0b304242d0\vectordrawable-1.1.0\AndroidManifest.xml:17:1-24:12
MERGED from [androidx.core:core:1.1.0] C:\Users\kinga\.gradle\caches\transforms-2\files-2.1\34b4ab0d8b65ac74ddd00d45b26dd963\core-1.1.0\AndroidManifest.xml:17:1-26:12
MERGED from [androidx.cursoradapter:cursoradapter:1.0.0] C:\Users\kinga\.gradle\caches\transforms-2\files-2.1\a87a91cfc12796be4a5399f6708c1bed\cursoradapter-1.0.0\AndroidManifest.xml:17:1-22:12
MERGED from [androidx.interpolator:interpolator:1.0.0] C:\Users\kinga\.gradle\caches\transforms-2\files-2.1\30612fa1f33fcbb3e456c3a5f852366f\interpolator-1.0.0\AndroidManifest.xml:17:1-22:12
MERGED from [androidx.exifinterface:exifinterface:1.0.0] C:\Users\kinga\.gradle\caches\transforms-2\files-2.1\4e38882eb964e66473ce5119ad391ade\exifinterface-1.0.0\AndroidManifest.xml:17:1-22:12
MERGED from [androidx.versionedparcelable:versionedparcelable:1.1.0] C:\Users\kinga\.gradle\caches\transforms-2\files-2.1\0e4335c82d4d573388d62295e89eaaed\versionedparcelable-1.1.0\AndroidManifest.xml:17:1-27:12
MERGED from [androidx.lifecycle:lifecycle-runtime:2.1.0] C:\Users\kinga\.gradle\caches\transforms-2\files-2.1\4dea87d08cf4eca2be6818de5406de80\lifecycle-runtime-2.1.0\AndroidManifest.xml:17:1-22:12
MERGED from [androidx.lifecycle:lifecycle-viewmodel:2.1.0] C:\Users\kinga\.gradle\caches\transforms-2\files-2.1\9c87d4ce634b90f093cf672ae75a3e2d\lifecycle-viewmodel-2.1.0\AndroidManifest.xml:17:1-22:12
MERGED from [androidx.savedstate:savedstate:1.0.0] C:\Users\kinga\.gradle\caches\transforms-2\files-2.1\f2e8952936b7109d6ac9ab1e40e3d573\jetified-savedstate-1.0.0\AndroidManifest.xml:17:1-24:12
MERGED from [androidx.lifecycle:lifecycle-livedata:2.0.0] C:\Users\kinga\.gradle\caches\transforms-2\files-2.1\9c0d2720907bb8bd5d5976efee735314\lifecycle-livedata-2.0.0\AndroidManifest.xml:17:1-22:12
MERGED from [androidx.lifecycle:lifecycle-livedata-core:2.0.0] C:\Users\kinga\.gradle\caches\transforms-2\files-2.1\d00c90699ae27cc1e1ce5e4b3e530617\lifecycle-livedata-core-2.0.0\AndroidManifest.xml:17:1-22:12
MERGED from [androidx.arch.core:core-runtime:2.0.0] C:\Users\kinga\.gradle\caches\transforms-2\files-2.1\13ac386f95e101744ae5f7d486caaa8c\core-runtime-2.0.0\AndroidManifest.xml:17:1-22:12
INJECTED from C:\Users\kinga\Desktop\Pogodynka\app\src\main\AndroidManifest.xml:2:1-30:12
INJECTED from C:\Users\kinga\Desktop\Pogodynka\app\src\main\AndroidManifest.xml:2:1-30:12
INJECTED from C:\Users\kinga\Desktop\Pogodynka\app\src\main\AndroidManifest.xml:2:1-30:12
	package
		ADDED from C:\Users\kinga\Desktop\Pogodynka\app\src\main\AndroidManifest.xml:3:5-36
		INJECTED from C:\Users\kinga\Desktop\Pogodynka\app\src\main\AndroidManifest.xml
		INJECTED from C:\Users\kinga\Desktop\Pogodynka\app\src\main\AndroidManifest.xml
	android:versionName
		INJECTED from C:\Users\kinga\Desktop\Pogodynka\app\src\main\AndroidManifest.xml
		ADDED from C:\Users\kinga\Desktop\Pogodynka\app\src\main\AndroidManifest.xml:2:1-30:12
		INJECTED from C:\Users\kinga\Desktop\Pogodynka\app\src\main\AndroidManifest.xml
	android:versionCode
		INJECTED from C:\Users\kinga\Desktop\Pogodynka\app\src\main\AndroidManifest.xml
		ADDED from C:\Users\kinga\Desktop\Pogodynka\app\src\main\AndroidManifest.xml:2:1-30:12
		INJECTED from C:\Users\kinga\Desktop\Pogodynka\app\src\main\AndroidManifest.xml
	xmlns:android
		ADDED from C:\Users\kinga\Desktop\Pogodynka\app\src\main\AndroidManifest.xml:2:11-69
uses-permission#android.permission.ACCESS_NETWORK_STATE
ADDED from C:\Users\kinga\Desktop\Pogodynka\app\src\main\AndroidManifest.xml:5:5-79
	android:name
		ADDED from C:\Users\kinga\Desktop\Pogodynka\app\src\main\AndroidManifest.xml:5:22-76
uses-permission#android.permission.INTERNET
ADDED from C:\Users\kinga\Desktop\Pogodynka\app\src\main\AndroidManifest.xml:6:5-67
	android:name
		ADDED from C:\Users\kinga\Desktop\Pogodynka\app\src\main\AndroidManifest.xml:6:22-64
application
ADDED from C:\Users\kinga\Desktop\Pogodynka\app\src\main\AndroidManifest.xml:8:5-28:19
MERGED from [androidx.constraintlayout:constraintlayout:1.1.3] C:\Users\kinga\.gradle\caches\transforms-2\files-2.1\380cbbd0623e9b22e21961fc6ec82b14\constraintlayout-1.1.3\AndroidManifest.xml:9:5-20
MERGED from [androidx.constraintlayout:constraintlayout:1.1.3] C:\Users\kinga\.gradle\caches\transforms-2\files-2.1\380cbbd0623e9b22e21961fc6ec82b14\constraintlayout-1.1.3\AndroidManifest.xml:9:5-20
MERGED from [com.squareup.picasso:picasso:2.71828] C:\Users\kinga\.gradle\caches\transforms-2\files-2.1\0776880ef631f5c06d4be31a89cabfd6\jetified-picasso-2.71828\AndroidManifest.xml:7:5-12:19
MERGED from [com.squareup.picasso:picasso:2.71828] C:\Users\kinga\.gradle\caches\transforms-2\files-2.1\0776880ef631f5c06d4be31a89cabfd6\jetified-picasso-2.71828\AndroidManifest.xml:7:5-12:19
MERGED from [androidx.core:core:1.1.0] C:\Users\kinga\.gradle\caches\transforms-2\files-2.1\34b4ab0d8b65ac74ddd00d45b26dd963\core-1.1.0\AndroidManifest.xml:24:5-89
MERGED from [androidx.core:core:1.1.0] C:\Users\kinga\.gradle\caches\transforms-2\files-2.1\34b4ab0d8b65ac74ddd00d45b26dd963\core-1.1.0\AndroidManifest.xml:24:5-89
MERGED from [androidx.versionedparcelable:versionedparcelable:1.1.0] C:\Users\kinga\.gradle\caches\transforms-2\files-2.1\0e4335c82d4d573388d62295e89eaaed\versionedparcelable-1.1.0\AndroidManifest.xml:24:5-25:19
MERGED from [androidx.versionedparcelable:versionedparcelable:1.1.0] C:\Users\kinga\.gradle\caches\transforms-2\files-2.1\0e4335c82d4d573388d62295e89eaaed\versionedparcelable-1.1.0\AndroidManifest.xml:24:5-25:19
	android:appComponentFactory
		ADDED from [androidx.core:core:1.1.0] C:\Users\kinga\.gradle\caches\transforms-2\files-2.1\34b4ab0d8b65ac74ddd00d45b26dd963\core-1.1.0\AndroidManifest.xml:24:18-86
	android:supportsRtl
		ADDED from C:\Users\kinga\Desktop\Pogodynka\app\src\main\AndroidManifest.xml:13:9-35
	android:label
		ADDED from C:\Users\kinga\Desktop\Pogodynka\app\src\main\AndroidManifest.xml:11:9-41
	android:roundIcon
		ADDED from C:\Users\kinga\Desktop\Pogodynka\app\src\main\AndroidManifest.xml:12:9-54
	android:icon
		ADDED from C:\Users\kinga\Desktop\Pogodynka\app\src\main\AndroidManifest.xml:10:9-43
	android:allowBackup
		ADDED from C:\Users\kinga\Desktop\Pogodynka\app\src\main\AndroidManifest.xml:9:9-35
	android:theme
		ADDED from C:\Users\kinga\Desktop\Pogodynka\app\src\main\AndroidManifest.xml:14:9-40
	android:usesCleartextTraffic
		ADDED from C:\Users\kinga\Desktop\Pogodynka\app\src\main\AndroidManifest.xml:15:9-44
activity#com.example.pogodynka.TheWeather
ADDED from C:\Users\kinga\Desktop\Pogodynka\app\src\main\AndroidManifest.xml:17:9-19:20
	android:name
		ADDED from C:\Users\kinga\Desktop\Pogodynka\app\src\main\AndroidManifest.xml:17:19-45
activity#com.example.pogodynka.MainActivity
ADDED from C:\Users\kinga\Desktop\Pogodynka\app\src\main\AndroidManifest.xml:20:9-26:20
	android:name
		ADDED from C:\Users\kinga\Desktop\Pogodynka\app\src\main\AndroidManifest.xml:20:19-47
intent-filter#action:name:android.intent.action.MAIN+category:name:android.intent.category.LAUNCHER
ADDED from C:\Users\kinga\Desktop\Pogodynka\app\src\main\AndroidManifest.xml:21:13-25:29
action#android.intent.action.MAIN
ADDED from C:\Users\kinga\Desktop\Pogodynka\app\src\main\AndroidManifest.xml:22:17-69
	android:name
		ADDED from C:\Users\kinga\Desktop\Pogodynka\app\src\main\AndroidManifest.xml:22:25-66
category#android.intent.category.LAUNCHER
ADDED from C:\Users\kinga\Desktop\Pogodynka\app\src\main\AndroidManifest.xml:24:17-77
	android:name
		ADDED from C:\Users\kinga\Desktop\Pogodynka\app\src\main\AndroidManifest.xml:24:27-74
uses-sdk
INJECTED from C:\Users\kinga\Desktop\Pogodynka\app\src\main\AndroidManifest.xml reason: use-sdk injection requested
INJECTED from C:\Users\kinga\Desktop\Pogodynka\app\src\main\AndroidManifest.xml
INJECTED from C:\Users\kinga\Desktop\Pogodynka\app\src\main\AndroidManifest.xml
MERGED from [androidx.appcompat:appcompat:1.1.0] C:\Users\kinga\.gradle\caches\transforms-2\files-2.1\ef8a364a6a39421e69c96cf68eeb3e63\appcompat-1.1.0\AndroidManifest.xml:20:5-22:41
MERGED from [androidx.appcompat:appcompat:1.1.0] C:\Users\kinga\.gradle\caches\transforms-2\files-2.1\ef8a364a6a39421e69c96cf68eeb3e63\appcompat-1.1.0\AndroidManifest.xml:20:5-22:41
MERGED from [androidx.constraintlayout:constraintlayout:1.1.3] C:\Users\kinga\.gradle\caches\transforms-2\files-2.1\380cbbd0623e9b22e21961fc6ec82b14\constraintlayout-1.1.3\AndroidManifest.xml:5:5-7:41
MERGED from [androidx.constraintlayout:constraintlayout:1.1.3] C:\Users\kinga\.gradle\caches\transforms-2\files-2.1\380cbbd0623e9b22e21961fc6ec82b14\constraintlayout-1.1.3\AndroidManifest.xml:5:5-7:41
MERGED from [androidx.swiperefreshlayout:swiperefreshlayout:1.0.0] C:\Users\kinga\.gradle\caches\transforms-2\files-2.1\fee859eac2601f0c53561481b8362e20\swiperefreshlayout-1.0.0\AndroidManifest.xml:20:5-44
MERGED from [androidx.swiperefreshlayout:swiperefreshlayout:1.0.0] C:\Users\kinga\.gradle\caches\transforms-2\files-2.1\fee859eac2601f0c53561481b8362e20\swiperefreshlayout-1.0.0\AndroidManifest.xml:20:5-44
MERGED from [com.squareup.picasso:picasso:2.71828] C:\Users\kinga\.gradle\caches\transforms-2\files-2.1\0776880ef631f5c06d4be31a89cabfd6\jetified-picasso-2.71828\AndroidManifest.xml:5:5-44
MERGED from [com.squareup.picasso:picasso:2.71828] C:\Users\kinga\.gradle\caches\transforms-2\files-2.1\0776880ef631f5c06d4be31a89cabfd6\jetified-picasso-2.71828\AndroidManifest.xml:5:5-44
MERGED from [androidx.recyclerview:recyclerview:1.1.0] C:\Users\kinga\.gradle\caches\transforms-2\files-2.1\4764869116b7944d884a78eb3b5d999f\recyclerview-1.1.0\AndroidManifest.xml:20:5-22:41
MERGED from [androidx.recyclerview:recyclerview:1.1.0] C:\Users\kinga\.gradle\caches\transforms-2\files-2.1\4764869116b7944d884a78eb3b5d999f\recyclerview-1.1.0\AndroidManifest.xml:20:5-22:41
MERGED from [androidx.fragment:fragment:1.1.0] C:\Users\kinga\.gradle\caches\transforms-2\files-2.1\7eb3e9033e20967dc4b6eab4b9d34b59\fragment-1.1.0\AndroidManifest.xml:20:5-22:41
MERGED from [androidx.fragment:fragment:1.1.0] C:\Users\kinga\.gradle\caches\transforms-2\files-2.1\7eb3e9033e20967dc4b6eab4b9d34b59\fragment-1.1.0\AndroidManifest.xml:20:5-22:41
MERGED from [androidx.appcompat:appcompat-resources:1.1.0] C:\Users\kinga\.gradle\caches\transforms-2\files-2.1\a627ba2b0fb7cab1458068884dcfd7e5\jetified-appcompat-resources-1.1.0\AndroidManifest.xml:20:5-22:41
MERGED from [androidx.appcompat:appcompat-resources:1.1.0] C:\Users\kinga\.gradle\caches\transforms-2\files-2.1\a627ba2b0fb7cab1458068884dcfd7e5\jetified-appcompat-resources-1.1.0\AndroidManifest.xml:20:5-22:41
MERGED from [androidx.drawerlayout:drawerlayout:1.0.0] C:\Users\kinga\.gradle\caches\transforms-2\files-2.1\369c371dbc36cd3420e0891af4dc30b8\drawerlayout-1.0.0\AndroidManifest.xml:20:5-44
MERGED from [androidx.drawerlayout:drawerlayout:1.0.0] C:\Users\kinga\.gradle\caches\transforms-2\files-2.1\369c371dbc36cd3420e0891af4dc30b8\drawerlayout-1.0.0\AndroidManifest.xml:20:5-44
MERGED from [androidx.viewpager:viewpager:1.0.0] C:\Users\kinga\.gradle\caches\transforms-2\files-2.1\b685d122498cf50e728d648d063a2ff6\viewpager-1.0.0\AndroidManifest.xml:20:5-44
MERGED from [androidx.viewpager:viewpager:1.0.0] C:\Users\kinga\.gradle\caches\transforms-2\files-2.1\b685d122498cf50e728d648d063a2ff6\viewpager-1.0.0\AndroidManifest.xml:20:5-44
MERGED from [androidx.customview:customview:1.0.0] C:\Users\kinga\.gradle\caches\transforms-2\files-2.1\3584c755b13ff246a30ea06b73bd9d78\customview-1.0.0\AndroidManifest.xml:20:5-44
MERGED from [androidx.customview:customview:1.0.0] C:\Users\kinga\.gradle\caches\transforms-2\files-2.1\3584c755b13ff246a30ea06b73bd9d78\customview-1.0.0\AndroidManifest.xml:20:5-44
MERGED from [androidx.loader:loader:1.0.0] C:\Users\kinga\.gradle\caches\transforms-2\files-2.1\d1290085211f6ca31e4b44ad501b0e7c\loader-1.0.0\AndroidManifest.xml:20:5-44
MERGED from [androidx.loader:loader:1.0.0] C:\Users\kinga\.gradle\caches\transforms-2\files-2.1\d1290085211f6ca31e4b44ad501b0e7c\loader-1.0.0\AndroidManifest.xml:20:5-44
MERGED from [androidx.activity:activity:1.0.0] C:\Users\kinga\.gradle\caches\transforms-2\files-2.1\db341947bb3b430f2ccfc05cfed8623a\jetified-activity-1.0.0\AndroidManifest.xml:20:5-22:41
MERGED from [androidx.activity:activity:1.0.0] C:\Users\kinga\.gradle\caches\transforms-2\files-2.1\db341947bb3b430f2ccfc05cfed8623a\jetified-activity-1.0.0\AndroidManifest.xml:20:5-22:41
MERGED from [androidx.vectordrawable:vectordrawable-animated:1.1.0] C:\Users\kinga\.gradle\caches\transforms-2\files-2.1\69b157e8ca7c4f8e65106af271a2dd62\vectordrawable-animated-1.1.0\AndroidManifest.xml:20:5-22:41
MERGED from [androidx.vectordrawable:vectordrawable-animated:1.1.0] C:\Users\kinga\.gradle\caches\transforms-2\files-2.1\69b157e8ca7c4f8e65106af271a2dd62\vectordrawable-animated-1.1.0\AndroidManifest.xml:20:5-22:41
MERGED from [androidx.vectordrawable:vectordrawable:1.1.0] C:\Users\kinga\.gradle\caches\transforms-2\files-2.1\ee8663f4341a41303331ea0b304242d0\vectordrawable-1.1.0\AndroidManifest.xml:20:5-22:41
MERGED from [androidx.vectordrawable:vectordrawable:1.1.0] C:\Users\kinga\.gradle\caches\transforms-2\files-2.1\ee8663f4341a41303331ea0b304242d0\vectordrawable-1.1.0\AndroidManifest.xml:20:5-22:41
MERGED from [androidx.core:core:1.1.0] C:\Users\kinga\.gradle\caches\transforms-2\files-2.1\34b4ab0d8b65ac74ddd00d45b26dd963\core-1.1.0\AndroidManifest.xml:20:5-22:41
MERGED from [androidx.core:core:1.1.0] C:\Users\kinga\.gradle\caches\transforms-2\files-2.1\34b4ab0d8b65ac74ddd00d45b26dd963\core-1.1.0\AndroidManifest.xml:20:5-22:41
MERGED from [androidx.cursoradapter:cursoradapter:1.0.0] C:\Users\kinga\.gradle\caches\transforms-2\files-2.1\a87a91cfc12796be4a5399f6708c1bed\cursoradapter-1.0.0\AndroidManifest.xml:20:5-44
MERGED from [androidx.cursoradapter:cursoradapter:1.0.0] C:\Users\kinga\.gradle\caches\transforms-2\files-2.1\a87a91cfc12796be4a5399f6708c1bed\cursoradapter-1.0.0\AndroidManifest.xml:20:5-44
MERGED from [androidx.interpolator:interpolator:1.0.0] C:\Users\kinga\.gradle\caches\transforms-2\files-2.1\30612fa1f33fcbb3e456c3a5f852366f\interpolator-1.0.0\AndroidManifest.xml:20:5-44
MERGED from [androidx.interpolator:interpolator:1.0.0] C:\Users\kinga\.gradle\caches\transforms-2\files-2.1\30612fa1f33fcbb3e456c3a5f852366f\interpolator-1.0.0\AndroidManifest.xml:20:5-44
MERGED from [androidx.exifinterface:exifinterface:1.0.0] C:\Users\kinga\.gradle\caches\transforms-2\files-2.1\4e38882eb964e66473ce5119ad391ade\exifinterface-1.0.0\AndroidManifest.xml:20:5-44
MERGED from [androidx.exifinterface:exifinterface:1.0.0] C:\Users\kinga\.gradle\caches\transforms-2\files-2.1\4e38882eb964e66473ce5119ad391ade\exifinterface-1.0.0\AndroidManifest.xml:20:5-44
MERGED from [androidx.versionedparcelable:versionedparcelable:1.1.0] C:\Users\kinga\.gradle\caches\transforms-2\files-2.1\0e4335c82d4d573388d62295e89eaaed\versionedparcelable-1.1.0\AndroidManifest.xml:20:5-22:41
MERGED from [androidx.versionedparcelable:versionedparcelable:1.1.0] C:\Users\kinga\.gradle\caches\transforms-2\files-2.1\0e4335c82d4d573388d62295e89eaaed\versionedparcelable-1.1.0\AndroidManifest.xml:20:5-22:41
MERGED from [androidx.lifecycle:lifecycle-runtime:2.1.0] C:\Users\kinga\.gradle\caches\transforms-2\files-2.1\4dea87d08cf4eca2be6818de5406de80\lifecycle-runtime-2.1.0\AndroidManifest.xml:20:5-44
MERGED from [androidx.lifecycle:lifecycle-runtime:2.1.0] C:\Users\kinga\.gradle\caches\transforms-2\files-2.1\4dea87d08cf4eca2be6818de5406de80\lifecycle-runtime-2.1.0\AndroidManifest.xml:20:5-44
MERGED from [androidx.lifecycle:lifecycle-viewmodel:2.1.0] C:\Users\kinga\.gradle\caches\transforms-2\files-2.1\9c87d4ce634b90f093cf672ae75a3e2d\lifecycle-viewmodel-2.1.0\AndroidManifest.xml:20:5-44
MERGED from [androidx.lifecycle:lifecycle-viewmodel:2.1.0] C:\Users\kinga\.gradle\caches\transforms-2\files-2.1\9c87d4ce634b90f093cf672ae75a3e2d\lifecycle-viewmodel-2.1.0\AndroidManifest.xml:20:5-44
MERGED from [androidx.savedstate:savedstate:1.0.0] C:\Users\kinga\.gradle\caches\transforms-2\files-2.1\f2e8952936b7109d6ac9ab1e40e3d573\jetified-savedstate-1.0.0\AndroidManifest.xml:20:5-22:41
MERGED from [androidx.savedstate:savedstate:1.0.0] C:\Users\kinga\.gradle\caches\transforms-2\files-2.1\f2e8952936b7109d6ac9ab1e40e3d573\jetified-savedstate-1.0.0\AndroidManifest.xml:20:5-22:41
MERGED from [androidx.lifecycle:lifecycle-livedata:2.0.0] C:\Users\kinga\.gradle\caches\transforms-2\files-2.1\9c0d2720907bb8bd5d5976efee735314\lifecycle-livedata-2.0.0\AndroidManifest.xml:20:5-44
MERGED from [androidx.lifecycle:lifecycle-livedata:2.0.0] C:\Users\kinga\.gradle\caches\transforms-2\files-2.1\9c0d2720907bb8bd5d5976efee735314\lifecycle-livedata-2.0.0\AndroidManifest.xml:20:5-44
MERGED from [androidx.lifecycle:lifecycle-livedata-core:2.0.0] C:\Users\kinga\.gradle\caches\transforms-2\files-2.1\d00c90699ae27cc1e1ce5e4b3e530617\lifecycle-livedata-core-2.0.0\AndroidManifest.xml:20:5-44
MERGED from [androidx.lifecycle:lifecycle-livedata-core:2.0.0] C:\Users\kinga\.gradle\caches\transforms-2\files-2.1\d00c90699ae27cc1e1ce5e4b3e530617\lifecycle-livedata-core-2.0.0\AndroidManifest.xml:20:5-44
MERGED from [androidx.arch.core:core-runtime:2.0.0] C:\Users\kinga\.gradle\caches\transforms-2\files-2.1\13ac386f95e101744ae5f7d486caaa8c\core-runtime-2.0.0\AndroidManifest.xml:20:5-44
MERGED from [androidx.arch.core:core-runtime:2.0.0] C:\Users\kinga\.gradle\caches\transforms-2\files-2.1\13ac386f95e101744ae5f7d486caaa8c\core-runtime-2.0.0\AndroidManifest.xml:20:5-44
INJECTED from C:\Users\kinga\Desktop\Pogodynka\app\src\main\AndroidManifest.xml
INJECTED from C:\Users\kinga\Desktop\Pogodynka\app\src\main\AndroidManifest.xml
	android:targetSdkVersion
		INJECTED from C:\Users\kinga\Desktop\Pogodynka\app\src\main\AndroidManifest.xml
		ADDED from C:\Users\kinga\Desktop\Pogodynka\app\src\main\AndroidManifest.xml
		INJECTED from C:\Users\kinga\Desktop\Pogodynka\app\src\main\AndroidManifest.xml
	android:minSdkVersion
		INJECTED from C:\Users\kinga\Desktop\Pogodynka\app\src\main\AndroidManifest.xml
		ADDED from C:\Users\kinga\Desktop\Pogodynka\app\src\main\AndroidManifest.xml
		INJECTED from C:\Users\kinga\Desktop\Pogodynka\app\src\main\AndroidManifest.xml
provider#com.squareup.picasso.PicassoProvider
ADDED from [com.squareup.picasso:picasso:2.71828] C:\Users\kinga\.gradle\caches\transforms-2\files-2.1\0776880ef631f5c06d4be31a89cabfd6\jetified-picasso-2.71828\AndroidManifest.xml:8:9-11:40
	android:authorities
		ADDED from [com.squareup.picasso:picasso:2.71828] C:\Users\kinga\.gradle\caches\transforms-2\files-2.1\0776880ef631f5c06d4be31a89cabfd6\jetified-picasso-2.71828\AndroidManifest.xml:10:13-72
	android:exported
		ADDED from [com.squareup.picasso:picasso:2.71828] C:\Users\kinga\.gradle\caches\transforms-2\files-2.1\0776880ef631f5c06d4be31a89cabfd6\jetified-picasso-2.71828\AndroidManifest.xml:11:13-37
	android:name
		ADDED from [com.squareup.picasso:picasso:2.71828] C:\Users\kinga\.gradle\caches\transforms-2\files-2.1\0776880ef631f5c06d4be31a89cabfd6\jetified-picasso-2.71828\AndroidManifest.xml:9:13-64
